{
		"startPointX": 0.79,
		"startPointY": 0.43,
		  "name": "blue",
		  "noiseWeight": 0.5,
		  "distWeight": 1.5,    
    "tilesetName":"Blue",
    "tilesetAtlas":"world/tilesets/terrain.atlas", 
    "terrain":[
    {
    "spriteName":"Blue_1",
    "min": 0,           
    "max": 0.2,           
    "resolution": 10
    },    {
    "spriteName":"Blue_2",
    "min": 0.8,           
    "max": 1.0,           
    "resolution": 10
    }
    ],
		  "width": 0.7,
		  "height": 0.7,
		"color": "10a2e0",
    "spriteNames":["IslandTree","Coral","Shell"]       ,
    "enemies":[ "Merfolk","Merfolk warrior","Merfolk Avatar","Djinn","Blue Wiz1"]  ,
    "pointsOfInterest":[ "Island Town"]
}