{		
"startPointX": 0.5,
		"startPointY": 0.22,
		"name": "white",
			"noiseWeight": 0.5,
			"distWeight": 1.5,        
    "tilesetName":"White",
    "tilesetAtlas":"world/tilesets/terrain.atlas",   
    "terrain":[
    {
    "spriteName":"White_1",
    "min": 0,           
    "max": 0.2,           
    "resolution": 10
    },    {
    "spriteName":"White_2",
    "min": 0.8,           
    "max": 1.0,           
    "resolution": 10
    }
    ],
			"width": 0.7,
			"height": 0.7,
		"color": "efe697" ,
    "spriteNames":[  "PlainsTree","Cactus","PlainsRock","LargePlainsRock","DarkGras"]  ,
    "enemies":[ "Cat","Human","Human guard","Human elite","Knight","White Wiz1"] ,
    "pointsOfInterest":[ "Plains Town"] 
}